index,label
4030,0
38518,0
48266,0
45556,0
6489,1
3605,1
5683,1
39489,1
34555,2
11202,2
34609,2
29389,2
35581,3
33301,3
45502,3
16341,3
25992,4
36755,4
46823,4
9824,4
41697,5
12051,5
46146,5
46095,5
10053,6
33466,6
4208,6
15107,6
38279,7
2701,7
7582,7
43792,7
18917,8
46538,8
16816,8
42266,8
22220,9
38393,9
22240,9
25393,9
